-------------------------------------------------------------------------------
Test set: com.minnie.week5.AppTest
-------------------------------------------------------------------------------
Tests run: 3, Failures: 0, Errors: 0, Skipped: 0, Time elapsed: 0.102 s - in com.minnie.week5.AppTest
